{
    "class": {
        "upper": "StatusRequest",
        "lower": "status_request"
    },
    "namespace": {
        "upper": "Pd",
        "lower": "pd"
    },
    "unit": {
        "functions": {
            "construct": {},
            "serialize": {},
            "deserialize": {}
        }
    }
}
